{
	"description": "项目配置文件。",
	"setting": {
		"urlCheck": false,
		"es6": true,
		"postcss": true,
		"minified": false,
		"newFeature": true
	},
	"miniprogramRoot": "dist/",
	"compileType": "miniprogram",
	"appid": "wx6cc1ff5eacfd9235",
	"projectname": "%E9%82%BB%E7%9B%9B%E5%85%B1%E4%BA%AB%E9%99%AA%E6%8A%A4%E5%BA%8A",
	"scripts": {
		"beforeCompile": "",
		"beforePreview": "",
		"beforeUpload": ""
	},
	"libVersion": "2.3.0",
	"simulatorType": "wechat",
	"simulatorPluginLibVersion": {},
	"condition": {
		"search": {
			"current": -1,
			"list": []
		},
		"conversation": {
			"current": -1,
			"list": []
		},
		"plugin": {
			"current": -1,
			"list": []
		},
		"game": {
			"currentL": -1,
			"list": []
		},
		"miniprogram": {
			"current": 0,
			"list": [
				{
					"id": 0,
					"name": "开锁（二维码）",
					"pathName": "pages/index/main",
					"query": "dn=616010",
					"scene": 1011
				},
				{
					"id": 2,
					"name": "钱包",
					"pathName": "pages/wallet/main",
					"query": "dn=36210007",
					"scene": "1001"
				},
				{
					"id": -1,
					"name": "二维码（login）",
					"pathName": "pages/login/main",
					"query": "dn=0001",
					"scene": "1011"
				},
				{
					"id": 5,
					"name": "单人聊天（index）",
					"pathName": "pages/index/main",
					"query": "dn=0001",
					"scene": "1007"
				},
				{
					"id": -1,
					"name": "单人聊天（agreement）",
					"pathName": "pages/agreement/main",
					"query": "dn=0001",
					"scene": "1007"
				},
				{
					"id": 6,
					"name": "二维码（index）",
					"pathName": "pages/index/main",
					"query": "dn=36210006",
					"scene": "1011"
				},
				{
					"id": 7,
					"name": "信用分介绍",
					"pathName": "pages/deposit/main",
					"query": "",
					"scene": "1001"
				},
				{
					"id": -1,
					"name": "Webview",
					"pathName": "pages/webview/main",
					"query": "",
					"scene": "1001"
				},
				{
					"id": -1,
					"name": "信用分介绍",
					"pathName": "pages/recharge/main",
					"query": "",
					"scene": "1001"
				},
				{
					"id": -1,
					"name": "信用分介绍",
					"pathName": "pages/person/main",
					"query": "",
					"scene": "1001"
				},
				{
					"id": -1,
					"name": "主入口（wallet）",
					"pathName": "pages/phone/main",
					"query": "dn=0001",
					"scene": "1001"
				},
				{
					"id": -1,
					"name": "使用记录",
					"pathName": "pages/leaseRecord/main",
					"query": "dn=0001",
					"scene": "1001"
				},
				{
					"id": 13,
					"name": "协议",
					"pathName": "pages/protocol/main",
					"query": "dn=36210007",
					"scene": "1001"
				},
				{
					"id": -1,
					"name": "故障反馈",
					"pathName": "pages/workOrder/main",
					"query": "",
					"scene": null
				}
			]
		}
	}
}